2018-10-01 19:25:07,589 - simple_example - DEBUG - debug message
2018-10-01 19:25:07,589 - simple_example - INFO - info message
2018-10-01 19:25:07,589 - simple_example - WARNING - warn message
2018-10-01 19:25:07,589 - simple_example - ERROR - error message
2018-10-01 19:25:07,589 - simple_example - CRITICAL - critical message
